{
  "db_naziv": "lazna_db",
  "konekcija": {
    "host": "localhost",
    "korisnicko_ime": "root",
    "lozinka": "root",
    "port": null
  },
  "tabele": [
    {
      "naziv": "DRZAVA",
      "reprezentacioni_naziv": "Drzava",
      "atributi": [
        {
          "obavezan": true,
          "jedinstven": true,
          "naziv": "DR_IDENTIFIKATOR",
          "reprezentacioni_naziv": "Identifikator",
          "tip": "STRING"
        },
        {
          "obavezan": false,
          "jedinstven": false,
          "naziv": "DR_NAZIV",
          "reprezentacioni_naziv": "Naziv",
          "tip": "STRING"
        },
        {
          "obavezan": false,
          "jedinstven": false,
          "naziv": "DR_GODINA_OSNIVANJA",
          "reprezentacioni_naziv": "Godina osnivanja",
          "tip": "DATE"
        }
      ],
      "primarni_kljucevi": ["DR_IDENTIFIKATOR"],
      "deca": {
        "po_hijerarhiji": [
          {
            "naziv": "NASELJENO_MESTO",
            "reference": [
              {
                "atribut": "DR_IDENTIFIKATOR",
                "detetov_atribut": "DR_IDENTIFIKATOR"
              }
            ]
          }
        ],
        "po_relaciji": [
          {
            "naziv": "REGION",
            "reference": [
              {
                "atribut": "DR_IDENTIFIKATOR",
                "detetov_atribut": "DR_IDENTIFIKATOR"
              }
            ]
          }
        ]
      },
      "roditelji": { "po_hijerarhiji": [], "po_relaciji": [] },
      "operacije": {
        "dobavi": {
          "naziv": "dobavi_drzava",
          "args": [
            { "DR_IDENTIFIKATOR": null },
            { "DR_NAZIV": null },
            { "DR_GODINA_OSNIVANJA": null },
            { "LIMIT": null },
            { "OFFSET": null }
          ]
        },
        "prebroj": {
          "naziv": "prebroj_drzava",
          "args": [
            { "DR_IDENTIFIKATOR": null },
            { "DR_NAZIV": null },
            { "DR_GODINA_OSNIVANJA": null }
          ]
        },
        "kreiraj": {
          "naziv": "kreiraj_drzava",
          "args": [
            { "DR_IDENTIFIKATOR": null },
            { "DR_NAZIV": null },
            { "DR_GODINA_OSNIVANJA": null }
          ]
        },
        "izmeni": {
          "naziv": "izmeni_drzava",
          "args": [
            { "DR_IDENTIFIKATOR": null },
            { "DR_NAZIV": null },
            { "DR_GODINA_OSNIVANJA": null },
            { "W_DR_IDENTIFIKATOR": null },
            { "W_DR_NAZIV": null },
            { "W_DR_GODINA_OSNIVANJA": null }
          ]
        },
        "obrisi": {
          "naziv": "obrisi_drzava",
          "args": [{ "DR_IDENTIFIKATOR": null }]
        }
      }
    },
    {
      "naziv": "NASELJENO_MESTO",
      "reprezentacioni_naziv": "Naseljeno mesto",
      "atributi": [
        {
          "obavezan": true,
          "jedinstven": true,
          "naziv": "NM_IDENTIFIKATOR",
          "reprezentacioni_naziv": "Identifikator",
          "tip": "STRING"
        },
        {
          "obavezan": true,
          "jedinstven": true,
          "naziv": "DR_IDENTIFIKATOR",
          "reprezentacioni_naziv": "Identifikator - Drzava",
          "tip": "STRING"
        },
        {
          "obavezan": false,
          "jedinstven": false,
          "naziv": "NM_NAZIV",
          "reprezentacioni_naziv": "Naziv",
          "tip": "STRING"
        }
      ],
      "primarni_kljucevi": ["NM_IDENTIFIKATOR", "DR_IDENTIFIKATOR"],
      "deca": { "po_hijerarhiji": [], "po_relaciji": [] },
      "roditelji": {
        "po_hijerarhiji": [
          {
            "naziv": "DRZAVA",
            "reference": [
              {
                "atribut": "DR_IDENTIFIKATOR",
                "roditeljski_atribut": "DR_IDENTIFIKATOR"
              }
            ]
          }
        ],
        "po_relaciji": []
      },
      "operacije": {
        "dobavi": {
          "naziv": "dobavi_naseljeno_mesto",
          "args": [
            { "NM_IDENTIFIKATOR": null },
            { "DR_IDENTIFIKATOR": null },
            { "NM_NAZIV": null },
            { "LIMIT": null },
            { "OFFSET": null }
          ]
        },
        "prebroj": {
          "naziv": "prebroj_naseljeno_mesto",
          "args": [
            { "NM_IDENTIFIKATOR": null },
            { "DR_IDENTIFIKATOR": null },
            { "NM_NAZIV": null }
          ]
        },
        "kreiraj": {
          "naziv": "kreiraj_naseljeno_mesto",
          "args": [
            { "NM_IDENTIFIKATOR": null },
            { "DR_IDENTIFIKATOR": null },
            { "NM_NAZIV": null }
          ]
        },
        "izmeni": {
          "naziv": "izmeni_naseljeno_mesto",
          "args": [
            { "NM_IDENTIFIKATOR": null },
            { "DR_IDENTIFIKATOR": null },
            { "NM_NAZIV": null },
            { "W_NM_IDENTIFIKATOR": null },
            { "W_DR_IDENTIFIKATOR": null },
            { "W_NM_NAZIV": null }
          ]
        },
        "obrisi": {
          "naziv": "obrisi_naseljeno_mesto",
          "args": [{ "NM_IDENTIFIKATOR": null }, { "DR_IDENTIFIKATOR": null }]
        }
      }
    },
    {
      "naziv": "REGION",
      "reprezentacioni_naziv": "Region",
      "atributi": [
        {
          "obavezan": true,
          "jedinstven": true,
          "naziv": "RE_IDENTIFIKATOR",
          "reprezentacioni_naziv": "Identifikator",
          "tip": "STRING"
        },
        {
          "obavezan": false,
          "jedinstven": false,
          "naziv": "DR_IDENTIFIKATOR",
          "reprezentacioni_naziv": "Identifikator - Drzava",
          "tip": "STRING"
        },
        {
          "obavezan": false,
          "jedinstven": false,
          "naziv": "RE_NAZIV",
          "reprezentacioni_naziv": "Naziv",
          "tip": "STRING"
        }
      ],
      "primarni_kljucevi": ["RE_IDENTIFIKATOR"],
      "deca": { "po_hijerarhiji": [], "po_relaciji": [] },
      "roditelji": {
        "po_hijerarhiji": [],
        "po_relaciji": [
          {
            "naziv": "DRZAVA",
            "reference": [
              {
                "atribut": "DR_IDENTIFIKATOR",
                "roditeljski_atribut": "DR_IDENTIFIKATOR"
              }
            ]
          }
        ]
      },
      "operacije": {
        "dobavi": {
          "naziv": "dobavi_region",
          "args": [
            { "RE_IDENTIFIKATOR": null },
            { "DR_IDENTIFIKATOR": null },
            { "RE_NAZIV": null },
            { "LIMIT": null },
            { "OFFSET": null }
          ]
        },
        "prebroj": {
          "naziv": "prebroj_region",
          "args": [
            { "RE_IDENTIFIKATOR": null },
            { "DR_IDENTIFIKATOR": null },
            { "RE_NAZIV": null }
          ]
        },
        "kreiraj": {
          "naziv": "kreiraj_region",
          "args": [
            { "RE_IDENTIFIKATOR": null },
            { "DR_IDENTIFIKATOR": null },
            { "RE_NAZIV": null }
          ]
        },
        "izmeni": {
          "naziv": "izmeni_region",
          "args": [
            { "RE_IDENTIFIKATOR": null },
            { "DR_IDENTIFIKATOR": null },
            { "RE_NAZIV": null },
            { "W_RE_IDENTIFIKATOR": null },
            { "W_DR_IDENTIFIKATOR": null },
            { "W_RE_NAZIV": null }
          ]
        },
        "obrisi": {
          "naziv": "obrisi_region",
          "args": [{ "RE_IDENTIFIKATOR": null }]
        }
      }
    }
  ]
}
