<svg xmlns="http://www.w3.org/2000/svg" width="180" height="180" viewBox="0 0 180 180">
  <g id="reconnect" transform="translate(-122 -131)">
    <rect id="bg" width="180" height="180" rx="10" transform="translate(122 131)" fill="none"/>
    <g id="Union_6" data-name="Union 6" transform="translate(155.001 650)" fill="#fff" stroke-linejoin="round">
      <path d="M 88.65579986572266 -361.6475524902344 L 91.78268432617188 -385.8989868164063 L 91.93112182617188 -387.0502319335938 L 90.99256896972656 -386.3671875 C 87.49845123291016 -383.8243103027344 83.69451904296875 -381.6749267578125 79.68643951416016 -379.978759765625 C 72.6600341796875 -377.007080078125 65.19544982910156 -375.5003051757813 57.50010299682617 -375.5003051757813 C 49.80416870117188 -375.5003051757813 42.33926773071289 -377.007080078125 35.31277084350586 -379.9788208007813 C 28.52360343933105 -382.8513488769531 22.42766952514648 -386.9613647460938 17.1943531036377 -392.1946411132813 C 11.95911979675293 -397.4307861328125 7.849102973937988 -403.5264282226563 4.978486061096191 -410.3121948242188 C 2.006802797317505 -417.3404541015625 0.5000028610229492 -424.8053588867188 0.5000028610229492 -432.49951171875 C 0.5000028610229492 -440.1945495605469 2.006786108016968 -447.6594543457031 4.978519439697266 -454.6868896484375 C 7.849102973937988 -461.4735107421875 11.95910263061523 -467.5691223144531 17.1943531036377 -472.8043518066406 C 22.42760276794434 -478.0385131835938 28.52350234985352 -482.1484985351563 35.31278610229492 -485.0202026367188 C 42.33855438232422 -487.9925231933594 49.80342102050781 -489.4996032714844 57.50010299682617 -489.4996032714844 C 65.19618988037109 -489.4996032714844 72.66075134277344 -487.9925231933594 79.68648529052734 -485.0202331542969 C 86.47563934326172 -482.1489562988281 92.57122039794922 -478.0389709472656 97.80398559570313 -472.8043823242188 C 103.0371017456055 -467.5730895996094 107.147102355957 -461.4775085449219 110.0199203491211 -454.6867980957031 C 112.9922180175781 -447.6592712402344 114.4993057250977 -440.1943664550781 114.4993057250977 -432.49951171875 C 114.4993057250977 -428.5326232910156 114.0935134887695 -424.5907287597656 113.2919158935547 -420.7584228515625 L 109.9064178466797 -429.5242614746094 C 109.5259552001953 -430.5108032226563 108.8072891235352 -431.2516784667969 107.8829345703125 -431.6102600097656 C 107.5060348510742 -431.7574157714844 107.1102523803711 -431.8322143554688 106.7076034545898 -431.8322143554688 C 106.1943893432617 -431.8322143554688 105.6953506469727 -431.7130737304688 105.2244033813477 -431.4781188964844 L 102.4388580322266 -430.0941467285156 C 102.4792785644531 -430.8925476074219 102.4997024536133 -431.6983947753906 102.4997024536133 -432.49951171875 C 102.4997024536133 -457.8647155761719 82.31297302246094 -478.5008239746094 57.50010299682617 -478.5008239746094 C 32.68673706054688 -478.5008239746094 12.49960327148438 -457.8647155761719 12.49960327148438 -432.49951171875 C 12.49960327148438 -407.1352844238281 32.68673706054688 -386.5 57.50010299682617 -386.5 C 68.93040466308594 -386.5 79.86042022705078 -390.9345092773438 88.27675628662109 -398.9866638183594 L 89.25910186767578 -399.926513671875 L 87.90190124511719 -399.8471069335938 L 55.02320861816406 -397.9232482910156 L 56.1884880065918 -406.6392517089844 C 56.26868438720703 -407.2398986816406 56.57452011108398 -407.814208984375 57.0496711730957 -408.2565002441406 C 57.48905181884766 -408.6665344238281 58.01966857910156 -408.9083251953125 58.54425430297852 -408.9377746582031 L 104.601318359375 -411.4856872558594 C 104.6360549926758 -411.4876098632813 104.6711044311523 -411.4885864257813 104.7054214477539 -411.4885864257813 C 105.1531219482422 -411.4885864257813 105.5362548828125 -411.3295593261719 105.8133544921875 -411.0287475585938 C 106.1433334350586 -410.6719665527344 106.2827529907227 -410.1627807617188 106.2066192626953 -409.5942993164063 L 100.1703186035156 -364.4528503417969 C 100.0901336669922 -363.8522338867188 99.78428649902344 -363.2778930664063 99.30912017822266 -362.8355712890625 C 98.86973571777344 -362.4255981445313 98.33911895751953 -362.1837768554688 97.81456756591797 -362.1543273925781 L 88.65579986572266 -361.6475524902344 Z" stroke="none"/>
      <path d="M 89.22858428955078 -362.1800231933594 L 97.78653717041016 -362.653564453125 C 98.19453430175781 -362.6764526367188 98.61396789550781 -362.8707885742188 98.96843719482422 -363.2015686035156 C 99.35900115966797 -363.5651245117188 99.60981750488281 -364.032958984375 99.67472076416016 -364.5191345214844 L 105.711051940918 -409.66064453125 C 105.7670516967773 -410.0787963867188 105.6732559204102 -410.44384765625 105.4456176757813 -410.6899719238281 C 105.2182693481445 -410.936767578125 104.9176025390625 -410.9885864257813 104.7054214477539 -410.9885864257813 C 104.6802673339844 -410.9885864257813 104.6544342041016 -410.9878540039063 104.6289367675781 -410.9864501953125 L 58.57228469848633 -408.4385681152344 C 58.16426849365234 -408.4156494140625 57.74483489990234 -408.2213134765625 57.39033508300781 -407.8905334472656 C 56.99980163574219 -407.5269775390625 56.74898529052734 -407.0591430664063 56.68408584594727 -406.572998046875 L 55.59913635253906 -398.4578247070313 L 87.87268829345703 -400.3462524414063 C 87.89234924316406 -400.347412109375 87.91188049316406 -400.3479614257813 87.931396484375 -400.3479614257813 C 88.32716369628906 -400.3479614257813 88.68832397460938 -400.1135864257813 88.84786987304688 -399.7473449707031 C 89.01530456542969 -399.3630676269531 88.92528533935547 -398.9151611328125 88.62240600585938 -398.6253967285156 C 80.11257171630859 -390.4837646484375 69.05978393554688 -386 57.50010299682617 -386 C 32.41103744506836 -386 11.99960327148438 -406.8595886230469 11.99960327148438 -432.49951171875 C 11.99960327148438 -458.1404113769531 32.41103744506836 -479.0008239746094 57.50010299682617 -479.0008239746094 C 82.58866882324219 -479.0008239746094 102.9997024536133 -458.1404113769531 102.9997024536133 -432.49951171875 C 102.9997024536133 -431.9732666015625 102.9909820556641 -431.445068359375 102.9736633300781 -430.9181823730469 L 105.0011825561523 -431.925537109375 C 105.542106628418 -432.1954040527344 106.1162185668945 -432.3322143554688 106.7076034545898 -432.3322143554688 C 107.172721862793 -432.3322143554688 107.6296844482422 -432.2458801269531 108.0637664794922 -432.076416015625 C 109.1210327148438 -431.666259765625 109.9411544799805 -430.82373046875 110.3728561401367 -429.7044067382813 L 113.1310119628906 -422.5628662109375 C 113.7078323364258 -425.8224487304688 113.9993057250977 -429.1519470214844 113.9993057250977 -432.49951171875 C 113.9993057250977 -440.1270751953125 112.505500793457 -447.5264587402344 109.5594177246094 -454.4920043945313 C 106.7118225097656 -461.2230834960938 102.6378326416016 -467.2652282714844 97.45037078857422 -472.4508972167969 C 92.26338958740234 -477.6396789550781 86.22123718261719 -481.7136535644531 79.49166870117188 -484.5597534179688 C 72.52791595458984 -487.5058288574219 65.12888336181641 -488.9996032714844 57.50010299682617 -488.9996032714844 C 49.87071990966797 -488.9996032714844 42.47138595581055 -487.5058288574219 35.507568359375 -484.5596923828125 C 28.77790260314941 -481.7132263183594 22.73542022705078 -477.6392211914063 17.54790306091309 -472.4507751464844 C 12.35841941833496 -467.2613220214844 8.28438663482666 -461.2191467285156 5.43903636932373 -454.4921264648438 C 2.493502855300903 -447.5266418457031 1.000002861022949 -440.1272583007813 1.000002861022949 -432.49951171875 C 1.000002861022949 -424.8726196289063 2.49351954460144 -417.4732055664063 5.438986301422119 -410.5070190429688 C 8.28438663482666 -403.7807922363281 12.35843658447266 -397.7385864257813 17.54790306091309 -392.5482177734375 C 22.73546981811523 -387.3606567382813 28.77800369262695 -383.28662109375 35.50753784179688 -380.4393310546875 C 42.47206878662109 -377.4938049316406 49.87143707275391 -376.0003051757813 57.50010299682617 -376.0003051757813 C 65.12816619873047 -376.0003051757813 72.52723693847656 -377.4938049316406 79.49156951904297 -380.4392395019531 C 83.46455383300781 -382.1205444335938 87.23505401611328 -384.2510375976563 90.69835662841797 -386.771484375 C 90.87306976318359 -386.8986206054688 91.07962799072266 -386.9629211425781 91.286865234375 -386.9629211425781 C 91.46263885498047 -386.9629211425781 91.638916015625 -386.9166564941406 91.79658508300781 -386.8232116699219 C 92.14015197753906 -386.61962890625 92.32965087890625 -386.2311096191406 92.27857208251953 -385.8350524902344 L 89.22858428955078 -362.1800231933594 M 88.08300018310547 -361.1151123046875 L 91.28678894042969 -385.9629211425781 C 87.75421905517578 -383.3920593261719 83.94066619873047 -381.2361755371094 79.88130187988281 -379.518310546875 C 72.79290008544922 -376.5204162597656 65.26260375976563 -375.0003051757813 57.50010299682617 -375.0003051757813 C 49.73670196533203 -375.0003051757813 42.20640182495117 -376.5204162597656 35.11800384521484 -379.518310546875 C 28.27080345153809 -382.4154052734375 22.12110328674316 -386.5608215332031 16.8408031463623 -391.8410949707031 C 11.56050300598145 -397.122314453125 7.414202690124512 -403.2711181640625 4.518002986907959 -410.1174011230469 C 1.520102858543396 -417.2076110839844 2.86254885395465e-06 -424.7379150390625 2.86254885395465e-06 -432.49951171875 C 2.86254885395465e-06 -440.2629089355469 1.520102858543396 -447.7922973632813 4.518002986907959 -454.8816223144531 C 7.414202690124512 -461.7288208007813 11.56050300598145 -467.8776245117188 16.8408031463623 -473.1578979492188 C 22.12110328674316 -478.4391174316406 28.27080345153809 -482.5845031738281 35.11800384521484 -485.480712890625 C 42.20640182495117 -488.4795227050781 49.73670196533203 -489.9996032714844 57.50010299682617 -489.9996032714844 C 65.26260375976563 -489.9996032714844 72.79290008544922 -488.4795227050781 79.88130187988281 -485.480712890625 C 86.72940063476563 -482.5845031738281 92.87910461425781 -478.4382019042969 98.15760040283203 -473.1578979492188 C 103.4379043579102 -467.8794250488281 107.5833053588867 -461.7297058105469 110.4804000854492 -454.8816223144531 C 113.4792022705078 -447.7914123535156 114.9993057250977 -440.2611083984375 114.9993057250977 -432.49951171875 C 114.9993057250977 -427.939208984375 114.467399597168 -423.410400390625 113.4188995361328 -419.0418090820313 L 109.4400024414063 -429.3441162109375 C 109.1106033325195 -430.1982116699219 108.4932022094727 -430.8372192382813 107.7021026611328 -431.1441040039063 C 107.381706237793 -431.2691955566406 107.0469055175781 -431.3322143554688 106.7076034545898 -431.3322143554688 C 106.2738037109375 -431.3322143554688 105.8498992919922 -431.2314147949219 105.4476013183594 -431.0307006835938 L 101.8880996704102 -429.26220703125 C 101.9619064331055 -430.3260192871094 101.9997024536133 -431.4150085449219 101.9997024536133 -432.49951171875 C 101.9997024536133 -457.5888061523438 82.03770446777344 -478.0008239746094 57.50010299682617 -478.0008239746094 C 32.96250152587891 -478.0008239746094 12.99960327148438 -457.5888061523438 12.99960327148438 -432.49951171875 C 12.99960327148438 -407.4111022949219 32.96250152587891 -387 57.50010299682617 -387 C 68.90275573730469 -387 79.77410125732422 -391.5439147949219 87.93110656738281 -399.3479614257813 L 54.44730377197266 -397.3887023925781 L 55.69290161132813 -406.7055053710938 C 55.78830337524414 -407.4201049804688 56.14920425415039 -408.1014099121094 56.70900344848633 -408.6224975585938 C 57.23370361328125 -409.1121215820313 57.87540435791016 -409.4010009765625 58.51620101928711 -409.43701171875 L 104.5736999511719 -411.9849243164063 C 104.6178970336914 -411.9873657226563 104.6618881225586 -411.9885864257813 104.7054214477539 -411.9885864257813 C 105.2886657714844 -411.9885864257813 105.8092575073242 -411.7711791992188 106.1811065673828 -411.3675231933594 C 106.6131057739258 -410.9004211425781 106.7985000610352 -410.2470092773438 106.7022018432617 -409.5279235839844 L 100.665901184082 -364.3865966796875 C 100.5705032348633 -363.6719970703125 100.209602355957 -362.99072265625 99.64980316162109 -362.4696044921875 C 99.12509918212891 -361.9800109863281 98.48340606689453 -361.6911010742188 97.84260559082031 -361.6551208496094 L 88.08300018310547 -361.1151123046875 Z" stroke="none"/>
    </g>
  </g>
</svg>
